\relax 
\citation{ref1}
\citation{ref2}
\citation{ref2.1}
\@writefile{toc}{\contentsline {section}{\numberline {1}Introduction}{1}}
\@writefile{toc}{\contentsline {section}{\numberline {2}Infrastucture}{1}}
\citation{ref2.2}
\citation{ref3}
\citation{ref3.1}
\citation{ref3.2}
\citation{ref3.3}
\citation{ref4}
\citation{ref4.1}
\citation{ref4.2}
\@writefile{toc}{\contentsline {section}{\numberline {3}Use cases}{2}}
\@writefile{toc}{\contentsline {subsection}{\numberline {3.1}CNAF Internal use case}{2}}
\@writefile{toc}{\contentsline {subsubsection}{\numberline {3.1.1}Middleware Developers}{2}}
\newlabel{fig1}{{1}{2}}
\citation{ref5}
\citation{ref5.1}
\citation{ref6}
\newlabel{fig2}{{2}{3}}
\@writefile{toc}{\contentsline {subsubsection}{\numberline {3.1.2}CNAF staff}{3}}
\@writefile{toc}{\contentsline {subsection}{\numberline {3.2}External Projects}{3}}
\@writefile{toc}{\contentsline {subsubsection}{\numberline {3.2.1}EEE}{3}}
\citation{ref6.1}
\citation{ref6.2}
\citation{ref6.3}
\bibcite{ref1}{1}
\bibcite{ref2}{2}
\bibcite{ref2.1}{3}
\bibcite{ref2.2}{4}
\bibcite{ref3}{5}
\bibcite{ref3.1}{6}
\bibcite{ref3.2}{7}
\bibcite{ref3.3}{8}
\bibcite{ref4}{9}
\bibcite{ref4.1}{10}
\bibcite{ref4.2}{11}
\bibcite{ref5}{12}
\bibcite{ref5.1}{13}
\bibcite{ref6}{14}
\bibcite{ref6.1}{15}
\bibcite{ref6.2}{16}
\bibcite{ref6.3}{17}
\bibcite{ref7}{18}
\@writefile{toc}{\contentsline {subsubsection}{\numberline {3.2.2}!Chaos}{4}}
\@writefile{toc}{\contentsline {section}{\numberline {4}Training}{4}}
\@writefile{toc}{\contentsline {section}{\numberline {5}Future Work}{4}}
